,number_filament_membrane,AVG_orientation_membrane,STD_orientation_membrane,buckling_pressure,buckling_force_new,elastic_pressure_new,elastic_pressure_corrected_new,elastic_energy_new,elastic_force_corrected_new,elastic_force_new,elastic_force_corrected,elastic_force,polymerization_force,elastic_pressure_corrected,elastic_pressure,polymerization_pressure,elastic_energy,polymerization_energy,pressure_exp,pressure_exp_err
0,16,62.839855999352025,18.970877342840406,19.7946583955047,3.2342468770982395,16.182217188628233,12.597734539975123,4150.074227297422,2.058342345714844,2.6440105386578403,1.1997357689824484,1.502627541799861,0.2083393052060434,7.342778895463506,9.19657651870146,1.2751053131140295,4914.949215882431,29182.5,168.89912328119507,115.76086064888061
1,17,62.407213857841576,18.485637895823572,19.892200728812913,3.281869398169,16.221381197061397,12.644437408174381,4182.6894205313365,2.0861136860962715,2.676247604397,1.5585207919950486,1.9548247545873534,0.2204755621935543,9.446569827455857,11.8486635786296,1.3363554751444175,4946.532642717751,29505.000000000004,168.89912328119507,115.76086064888061
